{
  "display": {
    "title": "Claim Contact Details",
    "intro": "Contact information for this claim, if different from the policy ({{ plan.id }}).",
    "localisation": {
      "DE_DE": {
        "title": "Kontaktdaten anfordern",
        "intro": "Informationen zum defekten Gerät."
      }
    }
  },
  "fields": [
    {
      "name": "first_name",
      "dataType": "string",
      "display": {
        "fieldType": "TEXT",
        "title": "First Name",
        "placeholder": "First name",
        "localisation": {
          "DE_DE": {
            "title": "Vorname",
            "placeholder": "Vorname"
          }
        }
      },
      "validation": {
        "mandatory": true,
        "minLength": 1,
        "maxLength": 50,
        "rules": [
          {
            "type": "REGEX",
            "expression": "^[ -~]*$",
            "failureMessage": "First name contains unsupported characters"
          },
          {
            "type": "EXPRESSION",
            "expression": "first_name != 'Bill'",
            "failureMessage": "We don't like that name"
          }
        ]
      },
      "binding": {
        "path": "$.contact.firstName"
      }
    },
    {
      "name": "last_name",
      "dataType": "string",
      "display": {
        "fieldType": "TEXT",
        "title": "Last Name",
        "placeholder": "Last name",
        "localisation": {
          "DE_DE": {
            "title": "Familienname",
            "placeholder": "Familienname"
          }
        }
      },
      "validation": {
        "mandatory": false,
        "minLength": 1,
        "maxLength": 50,
        "rules": [
          {
            "type": "REGEX",
            "expression": "^[ -~]*$",
            "failureMessage": "Last name contains unsupported characters"
          }
        ]
      },
      "binding": {
        "path": "$.contact.lastName"
      }
    },
    {
      "name": "email_address",
      "dataType": "string",
      "display": {
        "fieldType": "EMAIL",
        "title": "Email Address",
        "placeholder": "address@example.com",
        "localisation": {
          "DE_DE": {
            "title": "E-Mail-Adresse"
          }
        }
      },
      "validation": {
        "mandatory": true,
        "minLength": 5,
        "maxLength": 254,
        "rules": []
      },
      "binding": {
        "path": "$.contact.email"
      }
    },
    {
      "name": "address_line_1",
      "dataType": "string",
      "display": {
        "fieldType": "TEXT",
        "title": "Address Line 1",
        "localisation": {
          "DE_DE": {
            "title": "Anschrift Zeile 1"
          }
        }
      },
      "validation": {
        "mandatory": true,
        "rules": []
      },
      "binding": {
        "path": "$.address.line1"
      }
    },
    {
      "name": "address_line_2",
      "dataType": "string",
      "display": {
        "fieldType": "TEXT",
        "title": "Address Line 2",
        "localisation": {
          "DE_DE": {
            "title": "Anschrift Zeile 2"
          }
        }
      },
      "validation": {
        "mandatory": false,
        "rules": []
      },
      "binding": {
        "path": "$.address.line2"
      }
    },
    {
      "name": "city",
      "dataType": "string",
      "display": {
        "fieldType": "TEXT",
        "title": "City",
        "localisation": {
          "DE_DE": {
            "title": "Stadt"
          }
        }
      },
      "validation": {
        "mandatory": true,
        "rules": []
      },
      "binding": {
        "path": "$.address.city"
      }
    },
    {
      "name": "post_code",
      "dataType": "string",
      "display": {
        "fieldType": "TEXT",
        "title": "Post code",
        "localisation": {
          "DE_DE": {
            "title": "Postleitzahl"
          }
        }
      },
      "validation": {
        "mandatory": true,
        "rules": [
          {
            "type": "REGEX",
            "expression": "^(([A-Z]{1,2}[0-9][A-Z0-9]?|ASCN|STHL|TDCU|BBND|[BFS]IQQ|PCRN|TKCA) ?[0-9][A-Z]{2}|BFPO ?[0-9]{1,4}|(KY[0-9]|MSR|VG|AI)[ -]?[0-9]{4}|[A-Z]{2} ?[0-9]{2}|GE ?CX|GIR ?0A{2}|SAN ?TA1)$",
            "failureMessage": "Post code contains unsupported characters"
          }
        ]
      },
      "binding": {
        "path": "address.postcode"
      }
    },
    {
      "name": "additional_information",
      "dataType": "string",
      "mandatory": false,
      "display": {
        "fieldType": "TEXTBOX",
        "title": "Additional Information",
        "placeholder": "Beware of the dog!",
        "localisation": {
          "DE_DE": {
            "title": "Weitere Informationen",
            "placeholder": "Vorsicht vor dem Hund!"
          }
        }
      },
      "validation": {
        "mandatory": false,
        "rules": []
      },
      "binding": {
        "path": "$.address.information"
      }
    }
  ],
  "validation": {
    "rules": [
      {
        "type": "EXPRESSION",
        "expression": "first_name && first_name != '' &&  last_name && last_name != ''",
        "expressionPreCondition": "first_name || last_name",
        "failureMessage": "You must enter your First name and Last name",
        "localisation": {
          "DE_DE": {
            "failureMessage": "Sie müssen Ihren Vor- und Nachnamen eingeben"
          }
        }
      },
      {
        "type": "EXPRESSION",
        "expression": "!!post_code && !!city && !!address_line_1",
        "expressionPreCondition": "!!post_code || !!city || !!address_line_1",
        "failureMessage": "Please enter your address",
        "localisation": {
          "DE_DE": {
            "failureMessage": "Bitte geben Sie Ihre Adresse ein"
          }
        }
      }
    ]
  }
}
